{
  "titles": [
    {
      "id": 1337513,
      "title": "Secret in Their Eyes",
      "year": 2015,
      "imdb_id": "tt1741273",
      "tmdb_id": 290751,
      "tmdb_type": "movie",
      "type": "movie"
    },
    {
      "id": 1247225,
      "title": "Spy Cat",
      "year": 2018,
      "imdb_id": "tt5746054",
      "tmdb_id": 509733,
      "tmdb_type": "movie",
      "type": "movie"
    }
  ],
  "page": 1,
  "total_results": 4592,
  "total_pages": 19
}